<svg width="108" height="116" viewBox="0 0 108 116" fill="none" xmlns="http://www.w3.org/2000/svg">
<path d="M7.99991 28.92C10.1216 28.92 12.1565 29.7629 13.6568 31.2632C15.1571 32.7634 15.9999 34.7983 15.9999 36.92V78.7C15.9999 80.8217 15.1571 82.8566 13.6568 84.3569C12.1565 85.8572 10.1216 86.7 7.99991 86.7V86.7C5.87818 86.7 3.84335 85.8572 2.34306 84.3569C0.842767 82.8566 -8.82387e-05 80.8217 -8.82387e-05 78.7V37C-0.0106616 35.9427 0.188459 34.8938 0.58576 33.914C0.983061 32.9341 1.57066 32.0427 2.31458 31.2914C3.05851 30.54 3.944 29.9436 4.91985 29.5365C5.89571 29.1295 6.94257 28.92 7.99991 28.92V28.92Z" fill="#FFD855"/>
<path d="M100 28.92C102.122 28.92 104.157 29.7629 105.657 31.2632C107.157 32.7634 108 34.7983 108 36.92V78.7C108 80.8217 107.157 82.8566 105.657 84.3569C104.157 85.8572 102.122 86.7 100 86.7C97.8783 86.7 95.8434 85.8572 94.3431 84.3569C92.8429 82.8566 92 80.8217 92 78.7V37C92 34.8783 92.8429 32.8434 94.3431 31.3432C95.8434 29.8429 97.8783 29 100 29V28.92Z" fill="#104A8A"/>
<path d="M31 14.5C33.1217 14.5 35.1566 15.3429 36.6569 16.8431C38.1571 18.3434 39 20.3783 39 22.5V93.15C39 95.2717 38.1571 97.3066 36.6569 98.8069C35.1566 100.307 33.1217 101.15 31 101.15C28.8783 101.15 26.8434 100.307 25.3431 98.8069C23.8429 97.3066 23 95.2717 23 93.15V22.49C23.0027 20.37 23.8467 18.3377 25.3467 16.8396C26.8467 15.3415 28.88 14.5 31 14.5V14.5Z" fill="#FFA332"/>
<path d="M77 14.5C79.1217 14.5 81.1566 15.3429 82.6569 16.8431C84.1571 18.3434 85 20.3783 85 22.5V93.15C85 95.2717 84.1571 97.3066 82.6569 98.8069C81.1566 100.307 79.1217 101.15 77 101.15C74.8783 101.15 72.8434 100.307 71.3431 98.8069C69.8429 97.3066 69 95.2717 69 93.15V22.49C69.0027 20.37 69.8467 18.3377 71.3467 16.8396C72.8467 15.3415 74.88 14.5 77 14.5V14.5Z" fill="#0781D7"/>
<path d="M54.0002 0C56.1219 0 58.1567 0.842855 59.657 2.34315C61.1573 3.84344 62.0002 5.87827 62.0002 8V107.57C62.0002 109.692 61.1573 111.727 59.657 113.227C58.1567 114.727 56.1219 115.57 54.0002 115.57C52.9437 115.579 51.8959 115.379 50.9172 114.981C49.9385 114.583 49.0483 113.996 48.298 113.252C47.5477 112.508 46.9522 111.623 46.5458 110.648C46.1394 109.673 45.9301 108.626 45.9302 107.57V8C45.9302 5.87827 46.773 3.84344 48.2733 2.34315C49.7736 0.842855 51.8084 0 53.9302 0L54.0002 0Z" fill="#33C0EB"/>
<path d="M65.4801 72.28L46.6801 51.02L12.6601 71.62L11.3301 69.42L47.1901 47.71L65.8001 68.76L96.1601 44.26L97.7801 46.26L65.4801 72.28Z" fill="#48D565"/>
<path d="M11.9999 65.71C12.9513 65.71 13.8812 65.9921 14.6722 66.5206C15.4632 67.0492 16.0797 67.8004 16.4438 68.6793C16.8079 69.5582 16.9031 70.5253 16.7175 71.4584C16.5319 72.3914 16.0738 73.2485 15.4011 73.9212C14.7284 74.5939 13.8714 75.052 12.9383 75.2376C12.0053 75.4232 11.0381 75.3279 10.1592 74.9639C9.28032 74.5998 8.5291 73.9833 8.00057 73.1923C7.47204 72.4013 7.18994 71.4713 7.18994 70.52C7.18994 69.2443 7.69671 68.0209 8.59876 67.1188C9.50081 66.2168 10.7243 65.71 11.9999 65.71V65.71Z" fill="#48D565"/>
<path d="M47.5898 54.89C50.2463 54.89 52.3998 52.7365 52.3998 50.08C52.3998 47.4235 50.2463 45.27 47.5898 45.27C44.9333 45.27 42.7798 47.4235 42.7798 50.08C42.7798 52.7365 44.9333 54.89 47.5898 54.89Z" fill="#48D565"/>
<path d="M66.29 65.71C67.2413 65.71 68.1713 65.9921 68.9623 66.5206C69.7533 67.0492 70.3698 67.8004 70.7338 68.6793C71.0979 69.5582 71.1932 70.5253 71.0076 71.4584C70.822 72.3914 70.3639 73.2485 69.6912 73.9212C69.0185 74.5939 68.1614 75.052 67.2284 75.2376C66.2953 75.4232 65.3282 75.3279 64.4493 74.9639C63.5704 74.5998 62.8191 73.9833 62.2906 73.1923C61.7621 72.4013 61.48 71.4713 61.48 70.52C61.48 69.2443 61.9867 68.0209 62.8888 67.1188C63.7908 66.2168 65.0143 65.71 66.29 65.71Z" fill="#48D565"/>
<path d="M95.81 41.44C96.7618 41.44 97.6921 41.7224 98.4833 42.2513C99.2746 42.7803 99.8911 43.5321 100.255 44.4116C100.619 45.2911 100.713 46.2588 100.527 47.1921C100.34 48.1254 99.8813 48.9824 99.2076 49.6547C98.534 50.327 97.676 50.7843 96.7423 50.9688C95.8085 51.1533 94.8411 51.0566 93.9624 50.691C93.0836 50.3254 92.3331 49.7073 91.8058 48.915C91.2784 48.1227 90.998 47.1918 91 46.24C91 45.6088 91.1245 44.9838 91.3663 44.4008C91.6082 43.8178 91.9627 43.2882 92.4094 42.8424C92.8562 42.3965 93.3865 42.0432 93.9701 41.8025C94.5536 41.5619 95.1788 41.4387 95.81 41.44V41.44Z" fill="#48D565"/>
</svg>
